lab3/waveform.vcd
$version Generated by VerilatedVcd $end
$timescale 1ps $end
 $scope module TOP $end
  $var wire 1 # reset $end
  $var wire 1 $ clk $end
  $var wire 1 % is_halted $end
  $var wire 32 & print_reg[0] [31:0] $end
  $var wire 32 ' print_reg[1] [31:0] $end
  $var wire 32 ( print_reg[2] [31:0] $end
  $var wire 32 ) print_reg[3] [31:0] $end
  $var wire 32 * print_reg[4] [31:0] $end
  $var wire 32 + print_reg[5] [31:0] $end
  $var wire 32 , print_reg[6] [31:0] $end
  $var wire 32 - print_reg[7] [31:0] $end
  $var wire 32 . print_reg[8] [31:0] $end
  $var wire 32 / print_reg[9] [31:0] $end
  $var wire 32 0 print_reg[10] [31:0] $end
  $var wire 32 1 print_reg[11] [31:0] $end
  $var wire 32 2 print_reg[12] [31:0] $end
  $var wire 32 3 print_reg[13] [31:0] $end
  $var wire 32 4 print_reg[14] [31:0] $end
  $var wire 32 5 print_reg[15] [31:0] $end
  $var wire 32 6 print_reg[16] [31:0] $end
  $var wire 32 7 print_reg[17] [31:0] $end
  $var wire 32 8 print_reg[18] [31:0] $end
  $var wire 32 9 print_reg[19] [31:0] $end
  $var wire 32 : print_reg[20] [31:0] $end
  $var wire 32 ; print_reg[21] [31:0] $end
  $var wire 32 < print_reg[22] [31:0] $end
  $var wire 32 = print_reg[23] [31:0] $end
  $var wire 32 > print_reg[24] [31:0] $end
  $var wire 32 ? print_reg[25] [31:0] $end
  $var wire 32 @ print_reg[26] [31:0] $end
  $var wire 32 A print_reg[27] [31:0] $end
  $var wire 32 B print_reg[28] [31:0] $end
  $var wire 32 C print_reg[29] [31:0] $end
  $var wire 32 D print_reg[30] [31:0] $end
  $var wire 32 E print_reg[31] [31:0] $end
  $scope module top $end
   $var wire 1 F reset $end
   $var wire 1 G clk $end
   $var wire 1 H is_halted $end
   $var wire 32 I print_reg[0] [31:0] $end
   $var wire 32 J print_reg[1] [31:0] $end
   $var wire 32 K print_reg[2] [31:0] $end
   $var wire 32 L print_reg[3] [31:0] $end
   $var wire 32 M print_reg[4] [31:0] $end
   $var wire 32 N print_reg[5] [31:0] $end
   $var wire 32 O print_reg[6] [31:0] $end
   $var wire 32 P print_reg[7] [31:0] $end
   $var wire 32 Q print_reg[8] [31:0] $end
   $var wire 32 R print_reg[9] [31:0] $end
   $var wire 32 S print_reg[10] [31:0] $end
   $var wire 32 T print_reg[11] [31:0] $end
   $var wire 32 U print_reg[12] [31:0] $end
   $var wire 32 V print_reg[13] [31:0] $end
   $var wire 32 W print_reg[14] [31:0] $end
   $var wire 32 X print_reg[15] [31:0] $end
   $var wire 32 Y print_reg[16] [31:0] $end
   $var wire 32 Z print_reg[17] [31:0] $end
   $var wire 32 [ print_reg[18] [31:0] $end
   $var wire 32 \ print_reg[19] [31:0] $end
   $var wire 32 ] print_reg[20] [31:0] $end
   $var wire 32 ^ print_reg[21] [31:0] $end
   $var wire 32 _ print_reg[22] [31:0] $end
   $var wire 32 ` print_reg[23] [31:0] $end
   $var wire 32 a print_reg[24] [31:0] $end
   $var wire 32 b print_reg[25] [31:0] $end
   $var wire 32 c print_reg[26] [31:0] $end
   $var wire 32 d print_reg[27] [31:0] $end
   $var wire 32 e print_reg[28] [31:0] $end
   $var wire 32 f print_reg[29] [31:0] $end
   $var wire 32 g print_reg[30] [31:0] $end
   $var wire 32 h print_reg[31] [31:0] $end
   $scope module cpu $end
    $var wire 1 i reset $end
    $var wire 1 j clk $end
    $var wire 1 k is_halted $end
    $var wire 32 l print_reg[0] [31:0] $end
    $var wire 32 m print_reg[1] [31:0] $end
    $var wire 32 n print_reg[2] [31:0] $end
    $var wire 32 o print_reg[3] [31:0] $end
    $var wire 32 p print_reg[4] [31:0] $end
    $var wire 32 q print_reg[5] [31:0] $end
    $var wire 32 r print_reg[6] [31:0] $end
    $var wire 32 s print_reg[7] [31:0] $end
    $var wire 32 t print_reg[8] [31:0] $end
    $var wire 32 u print_reg[9] [31:0] $end
    $var wire 32 v print_reg[10] [31:0] $end
    $var wire 32 w print_reg[11] [31:0] $end
    $var wire 32 x print_reg[12] [31:0] $end
    $var wire 32 y print_reg[13] [31:0] $end
    $var wire 32 z print_reg[14] [31:0] $end
    $var wire 32 { print_reg[15] [31:0] $end
    $var wire 32 | print_reg[16] [31:0] $end
    $var wire 32 } print_reg[17] [31:0] $end
    $var wire 32 ~ print_reg[18] [31:0] $end
    $var wire 32 !! print_reg[19] [31:0] $end
    $var wire 32 "! print_reg[20] [31:0] $end
    $var wire 32 #! print_reg[21] [31:0] $end
    $var wire 32 $! print_reg[22] [31:0] $end
    $var wire 32 %! print_reg[23] [31:0] $end
    $var wire 32 &! print_reg[24] [31:0] $end
    $var wire 32 '! print_reg[25] [31:0] $end
    $var wire 32 (! print_reg[26] [31:0] $end
    $var wire 32 )! print_reg[27] [31:0] $end
    $var wire 32 *! print_reg[28] [31:0] $end
    $var wire 32 +! print_reg[29] [31:0] $end
    $var wire 32 ,! print_reg[30] [31:0] $end
    $var wire 32 -! print_reg[31] [31:0] $end
    $var wire 32 .! current_pc [31:0] $end
    $var wire 32 /! next_pc [31:0] $end
    $var wire 5 0! rs1 [4:0] $end
    $var wire 5 1! rs2 [4:0] $end
    $var wire 5 2! rd [4:0] $end
    $var wire 32 3! wb_data [31:0] $end
    $var wire 32 4! addr [31:0] $end
    $var wire 4 5! alu_op [3:0] $end
    $var wire 7 6! opcode [6:0] $end
    $var wire 1 7! pc_src $end
    $var wire 1 8! pc_write_cond $end
    $var wire 1 9! pc_write $end
    $var wire 1 :! change_pc $end
    $var wire 1 ;! reg_write $end
    $var wire 1 <! IorD $end
    $var wire 1 =! mem_read $end
    $var wire 1 >! mem_write $end
    $var wire 1 ?! ir_write $end
    $var wire 1 @! alu_srcA $end
    $var wire 1 A! mem_to_reg $end
    $var wire 1 B! is_ecall $end
    $var wire 2 C! alu_srcB [1:0] $end
    $var wire 1 D! alu_control $end
    $var wire 4 E! current_state [3:0] $end
    $var wire 4 F! next_state [3:0] $end
    $var wire 32 G! mem_data [31:0] $end
    $var wire 32 H! imm_value [31:0] $end
    $var wire 32 I! alu_result [31:0] $end
    $var wire 1 J! alu_bcond $end
    $var wire 32 K! IR [31:0] $end
    $var wire 32 L! MDR [31:0] $end
    $var wire 32 M! A [31:0] $end
    $var wire 32 N! B [31:0] $end
    $var wire 32 O! ALUOut [31:0] $end
    $var wire 32 P! alu_in_1 [31:0] $end
    $var wire 32 Q! alu_in_2 [31:0] $end
    $scope module alu $end
     $var wire 4 R! alu_op [3:0] $end
     $var wire 32 S! alu_in_1 [31:0] $end
     $var wire 32 T! alu_in_2 [31:0] $end
     $var wire 32 U! alu_result [31:0] $end
     $var wire 1 V! alu_bcond $end
     $var wire 5 W! shamt [4:0] $end
    $upscope $end
    $scope module alu_ctrl_unit $end
     $var wire 1 X! alu_control $end
     $var wire 7 Y! opcode [6:0] $end
     $var wire 3 Z! funct3 [2:0] $end
     $var wire 1 [! funct7 $end
     $var wire 4 \! alu_op [3:0] $end
    $upscope $end
    $scope module changeState $end
     $var wire 1 ]! clk $end
     $var wire 1 ^! reset $end
     $var wire 4 _! next_state [3:0] $end
     $var wire 4 `! current_state [3:0] $end
    $upscope $end
    $scope module ctrl_unit $end
     $var wire 7 a! opcode [6:0] $end
     $var wire 4 b! state [3:0] $end
     $var wire 1 c! pc_write_cond $end
     $var wire 1 d! pc_write $end
     $var wire 1 e! IorD $end
     $var wire 1 f! mem_read $end
     $var wire 1 g! mem_write $end
     $var wire 1 h! mem_to_reg $end
     $var wire 1 i! ir_write $end
     $var wire 1 j! pc_src $end
     $var wire 1 k! alu_op $end
     $var wire 2 l! alu_srcB [1:0] $end
     $var wire 1 m! alu_srcA $end
     $var wire 1 n! reg_write $end
     $var wire 1 o! is_ecall $end
    $upscope $end
    $scope module imm_gen $end
     $var wire 32 p! part_of_inst [31:0] $end
     $var wire 32 q! imm_gen_out [31:0] $end
     $var wire 7 r! opcode [6:0] $end
    $upscope $end
    $scope module memory $end
     $var wire 32 q" MEM_DEPTH [31:0] $end
     $var wire 1 s! reset $end
     $var wire 1 t! clk $end
     $var wire 32 u! addr [31:0] $end
     $var wire 32 v! din [31:0] $end
     $var wire 1 w! mem_read $end
     $var wire 1 x! mem_write $end
     $var wire 32 y! dout [31:0] $end
     $var wire 32 z! i [31:0] $end
     $var wire 32 {! mem_addr [31:0] $end
    $upscope $end
    $scope module pc $end
     $var wire 1 |! reset $end
     $var wire 1 }! clk $end
     $var wire 32 ~! next_pc [31:0] $end
     $var wire 1 !" change_pc $end
     $var wire 32 "" current_pc [31:0] $end
    $upscope $end
    $scope module reg_file $end
     $var wire 1 #" reset $end
     $var wire 1 $" clk $end
     $var wire 5 %" rs1 [4:0] $end
     $var wire 5 &" rs2 [4:0] $end
     $var wire 5 '" rd [4:0] $end
     $var wire 32 (" rd_din [31:0] $end
     $var wire 1 )" write_enable $end
     $var wire 32 *" rs1_dout [31:0] $end
     $var wire 32 +" rs2_dout [31:0] $end
     $var wire 32 ," print_reg[0] [31:0] $end
     $var wire 32 -" print_reg[1] [31:0] $end
     $var wire 32 ." print_reg[2] [31:0] $end
     $var wire 32 /" print_reg[3] [31:0] $end
     $var wire 32 0" print_reg[4] [31:0] $end
     $var wire 32 1" print_reg[5] [31:0] $end
     $var wire 32 2" print_reg[6] [31:0] $end
     $var wire 32 3" print_reg[7] [31:0] $end
     $var wire 32 4" print_reg[8] [31:0] $end
     $var wire 32 5" print_reg[9] [31:0] $end
     $var wire 32 6" print_reg[10] [31:0] $end
     $var wire 32 7" print_reg[11] [31:0] $end
     $var wire 32 8" print_reg[12] [31:0] $end
     $var wire 32 9" print_reg[13] [31:0] $end
     $var wire 32 :" print_reg[14] [31:0] $end
     $var wire 32 ;" print_reg[15] [31:0] $end
     $var wire 32 <" print_reg[16] [31:0] $end
     $var wire 32 =" print_reg[17] [31:0] $end
     $var wire 32 >" print_reg[18] [31:0] $end
     $var wire 32 ?" print_reg[19] [31:0] $end
     $var wire 32 @" print_reg[20] [31:0] $end
     $var wire 32 A" print_reg[21] [31:0] $end
     $var wire 32 B" print_reg[22] [31:0] $end
     $var wire 32 C" print_reg[23] [31:0] $end
     $var wire 32 D" print_reg[24] [31:0] $end
     $var wire 32 E" print_reg[25] [31:0] $end
     $var wire 32 F" print_reg[26] [31:0] $end
     $var wire 32 G" print_reg[27] [31:0] $end
     $var wire 32 H" print_reg[28] [31:0] $end
     $var wire 32 I" print_reg[29] [31:0] $end
     $var wire 32 J" print_reg[30] [31:0] $end
     $var wire 32 K" print_reg[31] [31:0] $end
     $var wire 32 L" i [31:0] $end
     $var wire 32 M" rf[0] [31:0] $end
     $var wire 32 N" rf[1] [31:0] $end
     $var wire 32 O" rf[2] [31:0] $end
     $var wire 32 P" rf[3] [31:0] $end
     $var wire 32 Q" rf[4] [31:0] $end
     $var wire 32 R" rf[5] [31:0] $end
     $var wire 32 S" rf[6] [31:0] $end
     $var wire 32 T" rf[7] [31:0] $end
     $var wire 32 U" rf[8] [31:0] $end
     $var wire 32 V" rf[9] [31:0] $end
     $var wire 32 W" rf[10] [31:0] $end
     $var wire 32 X" rf[11] [31:0] $end
     $var wire 32 Y" rf[12] [31:0] $end
     $var wire 32 Z" rf[13] [31:0] $end
     $var wire 32 [" rf[14] [31:0] $end
     $var wire 32 \" rf[15] [31:0] $end
     $var wire 32 ]" rf[16] [31:0] $end
     $var wire 32 ^" rf[17] [31:0] $end
     $var wire 32 _" rf[18] [31:0] $end
     $var wire 32 `" rf[19] [31:0] $end
     $var wire 32 a" rf[20] [31:0] $end
     $var wire 32 b" rf[21] [31:0] $end
     $var wire 32 c" rf[22] [31:0] $end
     $var wire 32 d" rf[23] [31:0] $end
     $var wire 32 e" rf[24] [31:0] $end
     $var wire 32 f" rf[25] [31:0] $end
     $var wire 32 g" rf[26] [31:0] $end
     $var wire 32 h" rf[27] [31:0] $end
     $var wire 32 i" rf[28] [31:0] $end
     $var wire 32 j" rf[29] [31:0] $end
     $var wire 32 k" rf[30] [31:0] $end
     $var wire 32 l" rf[31] [31:0] $end
    $upscope $end
    $scope module stateCounter $end
     $var wire 1 m" clk $end
     $var wire 1 n" reset $end
     $var wire 7 o" opcode [6:0] $end
     $var wire 4 p" state [3:0] $end
    $upscope $end
   $upscope $end
  $upscope $end
 $upscope $end
$enddefinitions $end


#0
0#
0$
0%
b11011110101101110011001111101001 &
b00010010000110010000010101001110 '
b11111100000001000111011000100100 (
b10000111011011110111011101000010 )
b10101110001001010010110000000111 *
b11011000000010100111010100000000 +
b11010101110100110011000111010110 ,
b00001011100111001110010100111111 -
b11000100001000000111110100111001 .
b11100010101011101101110011111001 /
b10111010100001101000010011010111 0
b11011111001101111101111101111010 1
b10010010011000000001101001110110 2
b10110101001110001111011001111100 3
b11110001010101010111000001000010 4
b00000011100111110011101010101110 5
b10011111000101111110010001110110 6
b01011011100001010111011000101011 7
b00110011100000010100000100100111 8
b00110100001111110111010111010010 9
b10010101101111010001111010100010 :
b10100101010010100110001100000110 ;
b11000000101110000000010100001001 <
b00110010000110101000101000001111 =
b01010010010011110101000111011100 >
b10000010001100010101001011100100 ?
b00010000100001100110010101011001 @
b01001011110100001101101101111001 A
b10111000010001100110101010101100 B
b00100010000011001001101010000000 C
b00111110001000110100010111110111 D
b11110011010010101001000011101010 E
0F
0G
0H
b11011110101101110011001111101001 I
b00010010000110010000010101001110 J
b11111100000001000111011000100100 K
b10000111011011110111011101000010 L
b10101110001001010010110000000111 M
b11011000000010100111010100000000 N
b11010101110100110011000111010110 O
b00001011100111001110010100111111 P
b11000100001000000111110100111001 Q
b11100010101011101101110011111001 R
b10111010100001101000010011010111 S
b11011111001101111101111101111010 T
b10010010011000000001101001110110 U
b10110101001110001111011001111100 V
b11110001010101010111000001000010 W
b00000011100111110011101010101110 X
b10011111000101111110010001110110 Y
b01011011100001010111011000101011 Z
b00110011100000010100000100100111 [
b00110100001111110111010111010010 \
b10010101101111010001111010100010 ]
b10100101010010100110001100000110 ^
b11000000101110000000010100001001 _
b00110010000110101000101000001111 `
b01010010010011110101000111011100 a
b10000010001100010101001011100100 b
b00010000100001100110010101011001 c
b01001011110100001101101101111001 d
b10111000010001100110101010101100 e
b00100010000011001001101010000000 f
b00111110001000110100010111110111 g
b11110011010010101001000011101010 h
0i
0j
0k
b11011110101101110011001111101001 l
b00010010000110010000010101001110 m
b11111100000001000111011000100100 n
b10000111011011110111011101000010 o
b10101110001001010010110000000111 p
b11011000000010100111010100000000 q
b11010101110100110011000111010110 r
b00001011100111001110010100111111 s
b11000100001000000111110100111001 t
b11100010101011101101110011111001 u
b10111010100001101000010011010111 v
b11011111001101111101111101111010 w
b10010010011000000001101001110110 x
b10110101001110001111011001111100 y
b11110001010101010111000001000010 z
b00000011100111110011101010101110 {
b10011111000101111110010001110110 |
b01011011100001010111011000101011 }
b00110011100000010100000100100111 ~
b00110100001111110111010111010010 !!
b10010101101111010001111010100010 "!
b10100101010010100110001100000110 #!
b11000000101110000000010100001001 $!
b00110010000110101000101000001111 %!
b01010010010011110101000111011100 &!
b10000010001100010101001011100100 '!
b00010000100001100110010101011001 (!
b01001011110100001101101101111001 )!
b10111000010001100110101010101100 *!
b00100010000011001001101010000000 +!
b00111110001000110100010111110111 ,!
b11110011010010101001000011101010 -!
b10010011011010001101100001100100 .!
b10010011011010001101100001101000 /!
b01001 0!
b10111 1!
b01010 2!
b10101100000000110100101001100111 3!
b10010011011010001101100001100100 4!
b0001 5!
b0111010 6!
07!
08!
19!
1:!
1;!
0<!
0=!
1>!
0?!
0@!
1A!
0B!
b01 C!
1D!
b0111 E!
b0000 F!
b00000000000000000000000000000000 G!
b00000000000000000000000000000000 H!
b10010011011010001101100001101000 I!
0J!
b01000001011101001110010100111010 K!
b10101100000000110100101001100111 L!
b11100010101011101101110011111001 M!
b00110010000110101000101000001111 N!
b00111000011011011110100011110100 O!
b10010011011010001101100001100100 P!
b00000000000000000000000000000100 Q!
b0001 R!
b10010011011010001101100001100100 S!
b00000000000000000000000000000100 T!
b10010011011010001101100001101000 U!
0V!
b00100 W!
1X!
b0111010 Y!
b110 Z!
1[!
b0001 \!
0]!
0^!
b0000 _!
b0111 `!
b0111010 a!
b0111 b!
0c!
1d!
0e!
0f!
1g!
1h!
0i!
0j!
1k!
b01 l!
0m!
1n!
0o!
b01000001011101001110010100111010 p!
b00000000000000000000000000000000 q!
b0111010 r!
0s!
0t!
b10010011011010001101100001100100 u!
b00110010000110101000101000001111 v!
0w!
1x!
b00000000000000000000000000000000 y!
b10100101011010001110101001111000 z!
b00100100110110100011011000011001 {!
0|!
0}!
b10010011011010001101100001101000 ~!
1!"
b10010011011010001101100001100100 ""
0#"
0$"
b01001 %"
b10111 &"
b01010 '"
b10101100000000110100101001100111 ("
1)"
b11100010101011101101110011111001 *"
b00110010000110101000101000001111 +"
b11011110101101110011001111101001 ,"
b00010010000110010000010101001110 -"
b11111100000001000111011000100100 ."
b10000111011011110111011101000010 /"
b10101110001001010010110000000111 0"
b11011000000010100111010100000000 1"
b11010101110100110011000111010110 2"
b00001011100111001110010100111111 3"
b11000100001000000111110100111001 4"
b11100010101011101101110011111001 5"
b10111010100001101000010011010111 6"
b11011111001101111101111101111010 7"
b10010010011000000001101001110110 8"
b10110101001110001111011001111100 9"
b11110001010101010111000001000010 :"
b00000011100111110011101010101110 ;"
b10011111000101111110010001110110 <"
b01011011100001010111011000101011 ="
b00110011100000010100000100100111 >"
b00110100001111110111010111010010 ?"
b10010101101111010001111010100010 @"
b10100101010010100110001100000110 A"
b11000000101110000000010100001001 B"
b00110010000110101000101000001111 C"
b01010010010011110101000111011100 D"
b10000010001100010101001011100100 E"
b00010000100001100110010101011001 F"
b01001011110100001101101101111001 G"
b10111000010001100110101010101100 H"
b00100010000011001001101010000000 I"
b00111110001000110100010111110111 J"
b11110011010010101001000011101010 K"
b01010010010110100011001011011011 L"
b11011110101101110011001111101001 M"
b00010010000110010000010101001110 N"
b11111100000001000111011000100100 O"
b10000111011011110111011101000010 P"
b10101110001001010010110000000111 Q"
b11011000000010100111010100000000 R"
b11010101110100110011000111010110 S"
b00001011100111001110010100111111 T"
b11000100001000000111110100111001 U"
b11100010101011101101110011111001 V"
b10111010100001101000010011010111 W"
b11011111001101111101111101111010 X"
b10010010011000000001101001110110 Y"
b10110101001110001111011001111100 Z"
b11110001010101010111000001000010 ["
b00000011100111110011101010101110 \"
b10011111000101111110010001110110 ]"
b01011011100001010111011000101011 ^"
b00110011100000010100000100100111 _"
b00110100001111110111010111010010 `"
b10010101101111010001111010100010 a"
b10100101010010100110001100000110 b"
b11000000101110000000010100001001 c"
b00110010000110101000101000001111 d"
b01010010010011110101000111011100 e"
b10000010001100010101001011100100 f"
b00010000100001100110010101011001 g"
b01001011110100001101101101111001 h"
b10111000010001100110101010101100 i"
b00100010000011001001101010000000 j"
b00111110001000110100010111110111 k"
b11110011010010101001000011101010 l"
0m"
0n"
b0111010 o"
b0000 p"
b00000000000000000100000000000000 q"
#1
1#
1F
1i
1^!
1s!
1|!
1#"
1n"
#2
1$
b00000000000000000000000000000000 &
b00000000000000000000000000000000 '
b00000000000000000010111111111100 (
b00000000000000000000000000000000 )
b00000000000000000000000000000000 *
b00000000000000000000000000000000 +
b00000000000000000000000000000000 ,
b00000000000000000000000000000000 -
b00000000000000000000000000000000 .
b00000000000000000000000000000000 /
b00000000000000000000000000000000 0
b00000000000000000000000000000000 1
b00000000000000000000000000000000 2
b00000000000000000000000000000000 3
b00000000000000000000000000000000 4
b00000000000000000000000000000000 5
b00000000000000000000000000000000 6
b00000000000000000000000000000000 7
b00000000000000000000000000000000 8
b00000000000000000000000000000000 9
b00000000000000000000000000000000 :
b00000000000000000000000000000000 ;
b00000000000000000000000000000000 <
b00000000000000000000000000000000 =
b00000000000000000000000000000000 >
b00000000000000000000000000000000 ?
b00000000000000000000000000000000 @
b00000000000000000000000000000000 A
b00000000000000000000000000000000 B
b00000000000000000000000000000000 C
b00000000000000000000000000000000 D
b00000000000000000000000000000000 E
1G
b00000000000000000000000000000000 I
b00000000000000000000000000000000 J
b00000000000000000010111111111100 K
b00000000000000000000000000000000 L
b00000000000000000000000000000000 M
b00000000000000000000000000000000 N
b00000000000000000000000000000000 O
b00000000000000000000000000000000 P
b00000000000000000000000000000000 Q
b00000000000000000000000000000000 R
b00000000000000000000000000000000 S
b00000000000000000000000000000000 T
b00000000000000000000000000000000 U
b00000000000000000000000000000000 V
b00000000000000000000000000000000 W
b00000000000000000000000000000000 X
b00000000000000000000000000000000 Y
b00000000000000000000000000000000 Z
b00000000000000000000000000000000 [
b00000000000000000000000000000000 \
b00000000000000000000000000000000 ]
b00000000000000000000000000000000 ^
b00000000000000000000000000000000 _
b00000000000000000000000000000000 `
b00000000000000000000000000000000 a
b00000000000000000000000000000000 b
b00000000000000000000000000000000 c
b00000000000000000000000000000000 d
b00000000000000000000000000000000 e
b00000000000000000000000000000000 f
b00000000000000000000000000000000 g
b00000000000000000000000000000000 h
1j
b00000000000000000000000000000000 l
b00000000000000000000000000000000 m
b00000000000000000010111111111100 n
b00000000000000000000000000000000 o
b00000000000000000000000000000000 p
b00000000000000000000000000000000 q
b00000000000000000000000000000000 r
b00000000000000000000000000000000 s
b00000000000000000000000000000000 t
b00000000000000000000000000000000 u
b00000000000000000000000000000000 v
b00000000000000000000000000000000 w
b00000000000000000000000000000000 x
b00000000000000000000000000000000 y
b00000000000000000000000000000000 z
b00000000000000000000000000000000 {
b00000000000000000000000000000000 |
b00000000000000000000000000000000 }
b00000000000000000000000000000000 ~
b00000000000000000000000000000000 !!
b00000000000000000000000000000000 "!
b00000000000000000000000000000000 #!
b00000000000000000000000000000000 $!
b00000000000000000000000000000000 %!
b00000000000000000000000000000000 &!
b00000000000000000000000000000000 '!
b00000000000000000000000000000000 (!
b00000000000000000000000000000000 )!
b00000000000000000000000000000000 *!
b00000000000000000000000000000000 +!
b00000000000000000000000000000000 ,!
b00000000000000000000000000000000 -!
b00000000000000000000000000000000 .!
b00000000000000000000000000000100 /!
b00000000000000000000000000000000 3!
b00000000000000000000000000000000 4!
09!
0:!
0;!
1=!
0>!
1?!
b0000 E!
b11111110000000010000000100010011 G!
b00000000000000000000000000000100 I!
b00000000000000000000000000000000 L!
b00000000000000000000000000000000 M!
b00000000000000000000000000000000 N!
b10010011011010001101100001101000 O!
b00000000000000000000000000000000 P!
b00000000000000000000000000000000 S!
b00000000000000000000000000000100 U!
1]!
b0000 `!
b0000 b!
0d!
1f!
0g!
1i!
0n!
1t!
b00000000000000000000000000000000 u!
b00000000000000000000000000000000 v!
1w!
0x!
b11111110000000010000000100010011 y!
b00000000000000000100000000000000 z!
b00000000000000000000000000000000 {!
1}!
b00000000000000000000000000000100 ~!
0!"
b00000000000000000000000000000000 ""
1$"
b00000000000000000000000000000000 ("
0)"
b00000000000000000000000000000000 *"
b00000000000000000000000000000000 +"
b00000000000000000000000000000000 ,"
b00000000000000000000000000000000 -"
b00000000000000000010111111111100 ."
b00000000000000000000000000000000 /"
b00000000000000000000000000000000 0"
b00000000000000000000000000000000 1"
b00000000000000000000000000000000 2"
b00000000000000000000000000000000 3"
b00000000000000000000000000000000 4"
b00000000000000000000000000000000 5"
b00000000000000000000000000000000 6"
b00000000000000000000000000000000 7"
b00000000000000000000000000000000 8"
b00000000000000000000000000000000 9"
b00000000000000000000000000000000 :"
b00000000000000000000000000000000 ;"
b00000000000000000000000000000000 <"
b00000000000000000000000000000000 ="
b00000000000000000000000000000000 >"
b00000000000000000000000000000000 ?"
b00000000000000000000000000000000 @"
b00000000000000000000000000000000 A"
b00000000000000000000000000000000 B"
b00000000000000000000000000000000 C"
b00000000000000000000000000000000 D"
b00000000000000000000000000000000 E"
b00000000000000000000000000000000 F"
b00000000000000000000000000000000 G"
b00000000000000000000000000000000 H"
b00000000000000000000000000000000 I"
b00000000000000000000000000000000 J"
b00000000000000000000000000000000 K"
b00000000000000000000000000100000 L"
b00000000000000000000000000000000 M"
b00000000000000000000000000000000 N"
b00000000000000000010111111111100 O"
b00000000000000000000000000000000 P"
b00000000000000000000000000000000 Q"
b00000000000000000000000000000000 R"
b00000000000000000000000000000000 S"
b00000000000000000000000000000000 T"
b00000000000000000000000000000000 U"
b00000000000000000000000000000000 V"
b00000000000000000000000000000000 W"
b00000000000000000000000000000000 X"
b00000000000000000000000000000000 Y"
b00000000000000000000000000000000 Z"
b00000000000000000000000000000000 ["
b00000000000000000000000000000000 \"
b00000000000000000000000000000000 ]"
b00000000000000000000000000000000 ^"
b00000000000000000000000000000000 _"
b00000000000000000000000000000000 `"
b00000000000000000000000000000000 a"
b00000000000000000000000000000000 b"
b00000000000000000000000000000000 c"
b00000000000000000000000000000000 d"
b00000000000000000000000000000000 e"
b00000000000000000000000000000000 f"
b00000000000000000000000000000000 g"
b00000000000000000000000000000000 h"
b00000000000000000000000000000000 i"
b00000000000000000000000000000000 j"
b00000000000000000000000000000000 k"
b00000000000000000000000000000000 l"
1m"
#3
0#
0F
0i
0^!
0s!
0|!
0#"
0n"
#4
0$
0G
0j
0]!
0t!
0}!
0$"
0m"
#5
1$
1G
1j
b00010 0!
b00000 1!
b00010 2!
b11111110000000010000000100010011 3!
b0010011 6!
b0001 F!
b11111111111111111111111111100000 H!
b11111110000000010000000100010011 K!
b11111110000000010000000100010011 L!
b00000000000000000010111111111100 M!
b00000000000000000000000000000100 O!
b0010011 Y!
b000 Z!
1]!
b0001 _!
b0010011 a!
b11111110000000010000000100010011 p!
b11111111111111111111111111100000 q!
b0010011 r!
1t!
1}!
1$"
b00010 %"
b00000 &"
b00010 '"
b11111110000000010000000100010011 ("
b00000000000000000010111111111100 *"
1m"
b0010011 o"
b0001 p"
#6
0$
0G
0j
0]!
0t!
0}!
0$"
0m"
#7
1$
1G
1j
0=!
0?!
b0001 E!
b0100 F!
b00000000000000000000000000000000 G!
1]!
b0100 _!
b0001 `!
b0001 b!
0f!
0i!
1t!
0w!
b00000000000000000000000000000000 y!
1}!
1$"
1m"
b0100 p"
#8
0$
0G
0j
0]!
0t!
0}!
0$"
0m"
#9
1$
1G
1j
b00000000000000000010111111011100 /!
b00000000000000000000000000000000 3!
1@!
b10 C!
0D!
b0100 E!
b0011 F!
b00000000000000000010111111011100 I!
b00000000000000000000000000000000 L!
b00000000000000000010111111111100 P!
b11111111111111111111111111100000 Q!
b00000000000000000010111111111100 S!
b11111111111111111111111111100000 T!
b00000000000000000010111111011100 U!
b00000 W!
0X!
1]!
b0011 _!
b0100 `!
b0100 b!
0k!
b10 l!
1m!
1t!
1}!
b00000000000000000010111111011100 ~!
1$"
b00000000000000000000000000000000 ("
1m"
b0011 p"
#10
0$
0G
0j
0]!
0t!
0}!
0$"
0m"
#11
1$
1G
1j
b00000000000000000000000000000100 /!
b00000000000000000010111111011100 3!
19!
1:!
1;!
0@!
0A!
b01 C!
1D!
b0011 E!
b0000 F!
b00000000000000000000000000000100 I!
b00000000000000000010111111011100 O!
b00000000000000000000000000000000 P!
b00000000000000000000000000000100 Q!
b00000000000000000000000000000000 S!
b00000000000000000000000000000100 T!
b00000000000000000000000000000100 U!
b00100 W!
1X!
1]!
b0000 _!
b0011 `!
b0011 b!
1d!
0h!
1k!
b01 l!
0m!
1n!
1t!
1}!
b00000000000000000000000000000100 ~!
1!"
1$"
b00000000000000000010111111011100 ("
1)"
1m"
b0000 p"
#12
0$
0G
0j
0]!
0t!
0}!
0$"
0m"
#13
1$
b00000000000000000010111111011100 (
1G
b00000000000000000010111111011100 K
1j
b00000000000000000010111111011100 n
b00000000000000000000000000000100 .!
b00000000000000000000000000001000 /!
b00000000000000000000000000000100 3!
b00000000000000000000000000000100 4!
09!
0:!
0;!
1=!
1?!
b0000 E!
b0001 F!
b00000000000100010010111000100011 G!
b00000000000000000000000000001000 I!
b00000000000000000010111111011100 M!
b00000000000000000000000000000100 O!
b00000000000000000000000000000100 P!
b00000000000000000000000000000100 S!
b00000000000000000000000000001000 U!
1]!
b0001 _!
b0000 `!
b0000 b!
0d!
1f!
1i!
0n!
1t!
b00000000000000000000000000000100 u!
1w!
b00000000000100010010111000100011 y!
b00000000000000000000000000000001 {!
1}!
b00000000000000000000000000001000 ~!
0!"
b00000000000000000000000000000100 ""
1$"
b00000000000000000000000000000100 ("
0)"
b00000000000000000010111111011100 *"
b00000000000000000010111111011100 ."
b00000000000000000010111111011100 O"
1m"
b0001 p"
#14
0$
0G
0j
0]!
0t!
0}!
0$"
0m"
#15
1$
1G
1j
b00001 1!
b11100 2!
b00000000000000000000000000001000 3!
b0100011 6!
0=!
0?!
b0001 E!
b0100 F!
b00000000000000000000000000000000 G!
b00000000000000000000000000011100 H!
b00000000000100010010111000100011 K!
b00000000000100010010111000100011 L!
b00000000000000000000000000001000 O!
b0100011 Y!
b010 Z!
0[!
1]!
b0100 _!
b0001 `!
b0100011 a!
b0001 b!
0f!
0i!
b00000000000100010010111000100011 p!
b00000000000000000000000000011100 q!
b0100011 r!
1t!
0w!
b00000000000000000000000000000000 y!
1}!
1$"
b00001 &"
b11100 '"
b00000000000000000000000000001000 ("
1m"
b0100011 o"
b0100 p"
#16
0$
0G
0j
0]!
0t!
0}!
0$"
0m"
